{
    "paging": {
        "page": 1,
        "total": 5441,
        "page_size": 20,
        "pages": 273
    },
    "loans": [
              {
              "id": 883595,
              "name": "Flocerfida",
              "description": {
              "languages": [
                            "en"
                            ]
              },
              "status": "fundraising",
              "funded_amount": 0,
              "basket_amount": 0,
              "image": {
              "id": 1879120,
              "template_id": 1
              },
              "activity": "General Store",
              "sector": "Retail",
              "use": "to buy items to sell like canned goods, personal care products, noodles, spices, coffee, milk, and other products.",
              "location": {
              "country_code": "PH",
              "country": "Philippines",
              "town": "Numancia, Aklan",
              "geo": {
              "level": "town",
              "pairs": "13 122",
              "type": "point"
              }
              },
              "partner_id": 145,
              "posted_date": "2015-05-13T14:00:04Z",
              "planned_expiration_date": "2015-06-12T14:00:03Z",
              "loan_amount": 450,
              "borrower_count": 1,
              "lender_count": 1,
              "bonus_credit_eligibility": true,
              "tags": []
              },
              {
              "id": 880370,
              "name": "Julio Cesar",
              "description": {
              "languages": [
                            "es",
                            "en"
                            ]
              },
              "status": "fundraising",
              "funded_amount": 0,
              "basket_amount": 0,
              "image": {
              "id": 1873858,
              "template_id": 1
              },
              "activity": "Agriculture",
              "sector": "Agriculture",
              "themes": [
                         "Rural Exclusion"
                         ],
              "use": "to purchase fertilizers, herbicides, manure, etc. ",
              "location": {
              "country_code": "SV",
              "country": "El Salvador",
              "geo": {
              "level": "country",
              "pairs": "13.833333 -88.916667",
              "type": "point"
              }
              },
              "partner_id": 81,
              "posted_date": "2015-05-13T14:00:03Z",
              "planned_expiration_date": "2015-06-12T14:00:02Z",
              "loan_amount": 500,
              "borrower_count": 1,
              "lender_count": 0,
              "bonus_credit_eligibility": true,
              "tags": []
              },
              {
              "id": 880372,
              "name": "Ines",
              "description": {
              "languages": [
                            "es",
                            "en"
                            ]
              },
              "status": "fundraising",
              "funded_amount": 0,
              "basket_amount": 0,
              "image": {
              "id": 1873862,
              "template_id": 1
              },
              "activity": "Agriculture",
              "sector": "Agriculture",
              "themes": [
                         "Vulnerable Groups"
                         ],
              "use": "to buy agricultural supplies for the first corn harvest of the year. ",
              "location": {
              "country_code": "SV",
              "country": "El Salvador",
              "geo": {
              "level": "country",
              "pairs": "13.833333 -88.916667",
              "type": "point"
              }
              },
              "partner_id": 167,
              "posted_date": "2015-05-13T13:50:08Z",
              "planned_expiration_date": "2015-06-12T13:50:08Z",
              "loan_amount": 800,
              "borrower_count": 1,
              "lender_count": 0,
              "bonus_credit_eligibility": true,
              "tags": []
              },
              {
              "id": 883662,
              "name": "Fred",
              "description": {
              "languages": [
                            "en"
                            ]
              },
              "status": "fundraising",
              "funded_amount": 0,
              "basket_amount": 0,
              "image": {
              "id": 1875774,
              "template_id": 1
              },
              "activity": "Food Production/Sales",
              "sector": "Food",
              "use": "to buy coffee to sell.",
              "location": {
              "country_code": "UG",
              "country": "Uganda",
              "town": "Kagadi",
              "geo": {
              "level": "town",
              "pairs": "2 33",
              "type": "point"
              }
              },
              "partner_id": 163,
              "posted_date": "2015-05-13T13:50:08Z",
              "planned_expiration_date": "2015-06-12T13:50:07Z",
              "loan_amount": 1025,
              "borrower_count": 1,
              "lender_count": 1,
              "bonus_credit_eligibility": true,
              "tags": []
              },
              {
              "id": 883664,
              "name": "Loida",
              "description": {
              "languages": [
                            "en"
                            ]
              },
              "status": "fundraising",
              "funded_amount": 0,
              "basket_amount": 0,
              "image": {
              "id": 1879218,
              "template_id": 1
              },
              "activity": "Fishing",
              "sector": "Food",
              "use": "to purchase additional fishing net",
              "location": {
              "country_code": "PH",
              "country": "Philippines",
              "town": "Quezon, Palawan",
              "geo": {
              "level": "town",
              "pairs": "13 122",
              "type": "point"
              }
              },
              "partner_id": 145,
              "posted_date": "2015-05-13T13:50:07Z",
              "planned_expiration_date": "2015-06-12T13:50:06Z",
              "loan_amount": 350,
              "borrower_count": 1,
              "lender_count": 4,
              "bonus_credit_eligibility": true,
              "tags": [
                       {
                       "name": "user_favorite"
                       }
                       ]
              },
              {
              "id": 883655,
              "name": "Susan",
              "description": {
              "languages": [
                            "en"
                            ]
              },
              "status": "fundraising",
              "funded_amount": 0,
              "basket_amount": 0,
              "image": {
              "id": 1879207,
              "template_id": 1
              },
              "activity": "Fishing",
              "sector": "Food",
              "use": "to buy fish nets and other fishing supplies.",
              "location": {
              "country_code": "PH",
              "country": "Philippines",
              "town": "Baybay City, Leyte",
              "geo": {
              "level": "town",
              "pairs": "13 122",
              "type": "point"
              }
              },
              "partner_id": 145,
              "posted_date": "2015-05-13T13:50:06Z",
              "planned_expiration_date": "2015-06-12T13:50:05Z",
              "loan_amount": 225,
              "borrower_count": 1,
              "lender_count": 0,
              "bonus_credit_eligibility": true,
              "tags": []
              },
              {
              "id": 883658,
              "name": "Isabel",
              "description": {
              "languages": [
                            "en"
                            ]
              },
              "status": "fundraising",
              "funded_amount": 0,
              "basket_amount": 0,
              "image": {
              "id": 1879211,
              "template_id": 1
              },
              "activity": "Pigs",
              "sector": "Agriculture",
              "use": "to buy more sacks of feeds. ",
              "location": {
              "country_code": "PH",
              "country": "Philippines",
              "town": "Quezon, Palawan",
              "geo": {
              "level": "town",
              "pairs": "13 122",
              "type": "point"
              }
              },
              "partner_id": 145,
              "posted_date": "2015-05-13T13:50:06Z",
              "planned_expiration_date": "2015-06-12T13:50:06Z",
              "loan_amount": 450,
              "borrower_count": 1,
              "lender_count": 0,
              "bonus_credit_eligibility": true,
              "tags": []
              },
              {
              "id": 883654,
              "name": "Ma. Mae",
              "description": {
              "languages": [
                            "en"
                            ]
              },
              "status": "fundraising",
              "funded_amount": 0,
              "basket_amount": 0,
              "image": {
              "id": 1879205,
              "template_id": 1
              },
              "activity": "General Store",
              "sector": "Retail",
              "use": "to purchase more groceries to sell like canned goods, noodles, spices, coffee, milk and ther groceries to sell. ",
              "location": {
              "country_code": "PH",
              "country": "Philippines",
              "town": "President Roxas, Capiz",
              "geo": {
              "level": "town",
              "pairs": "13 122",
              "type": "point"
              }
              },
              "partner_id": 145,
              "posted_date": "2015-05-13T13:50:05Z",
              "planned_expiration_date": "2015-06-12T13:50:05Z",
              "loan_amount": 150,
              "borrower_count": 1,
              "lender_count": 1,
              "bonus_credit_eligibility": true,
              "tags": []
              },
              {
              "id": 883661,
              "name": "Jocelyn",
              "description": {
              "languages": [
                            "en"
                            ]
              },
              "status": "fundraising",
              "funded_amount": 0,
              "basket_amount": 0,
              "image": {
              "id": 1879114,
              "template_id": 1
              },
              "activity": "Food Production/Sales",
              "sector": "Food",
              "use": "to purchase additional coffee beans",
              "location": {
              "country_code": "PH",
              "country": "Philippines",
              "town": "Jimenez-Butuay, Jimenez, Misamis Occidental",
              "geo": {
              "level": "town",
              "pairs": "13 122",
              "type": "point"
              }
              },
              "partner_id": 126,
              "posted_date": "2015-05-13T13:50:05Z",
              "planned_expiration_date": "2015-06-12T13:50:04Z",
              "loan_amount": 150,
              "borrower_count": 1,
              "lender_count": 1,
              "bonus_credit_eligibility": true,
              "tags": []
              },
              {
              "id": 883649,
              "name": "Dilovar",
              "description": {
              "languages": [
                            "en"
                            ]
              },
              "status": "fundraising",
              "funded_amount": 0,
              "basket_amount": 0,
              "image": {
              "id": 1879192,
              "template_id": 1
              },
              "activity": "Beauty Salon",
              "sector": "Services",
              "themes": [
                         "Start-Up"
                         ],
              "use": "to buy needed items and equipment to start a new business.",
              "location": {
              "country_code": "TJ",
              "country": "Tajikistan",
              "town": "Kanibadam",
              "geo": {
              "level": "town",
              "pairs": "40.283333 70.416667",
              "type": "point"
              }
              },
              "partner_id": 100,
              "posted_date": "2015-05-13T13:50:04Z",
              "planned_expiration_date": "2015-06-12T13:50:04Z",
              "loan_amount": 575,
              "borrower_count": 1,
              "lender_count": 2,
              "bonus_credit_eligibility": true,
              "tags": []
              },
              {
              "id": 880369,
              "name": "Anonymous",
              "description": {
              "languages": [
                            "es",
                            "en"
                            ]
              },
              "status": "fundraising",
              "funded_amount": 0,
              "basket_amount": 0,
              "image": {
              "id": 1873857,
              "template_id": 1
              },
              "activity": "Retail",
              "sector": "Retail",
              "themes": [
                         "Vulnerable Groups",
                         "Youth"
                         ],
              "use": "to buy more merchandise like soups, toilet paper, eggs, soap, shoes, shampoo, and toothpaste, etc. ",
              "location": {
              "country_code": "SV",
              "country": "El Salvador",
              "geo": {
              "level": "country",
              "pairs": "13.833333 -88.916667",
              "type": "point"
              }
              },
              "partner_id": 81,
              "posted_date": "2015-05-13T13:50:02Z",
              "planned_expiration_date": "2015-06-12T13:50:02Z",
              "loan_amount": 400,
              "borrower_count": 1,
              "lender_count": 0,
              "bonus_credit_eligibility": true,
              "tags": []
              },
              {
              "id": 880371,
              "name": "Humberto De Jesus",
              "description": {
              "languages": [
                            "es",
                            "en"
                            ]
              },
              "status": "fundraising",
              "funded_amount": 0,
              "basket_amount": 0,
              "image": {
              "id": 1873859,
              "template_id": 1
              },
              "activity": "Agriculture",
              "sector": "Agriculture",
              "themes": [
                         "Rural Exclusion"
                         ],
              "use": "to buy fertilizers and pesticides, and to pay for farming machinery",
              "location": {
              "country_code": "SV",
              "country": "El Salvador",
              "geo": {
              "level": "country",
              "pairs": "13.833333 -88.916667",
              "type": "point"
              }
              },
              "partner_id": 81,
              "posted_date": "2015-05-13T13:50:02Z",
              "planned_expiration_date": "2015-06-12T13:50:02Z",
              "loan_amount": 450,
              "borrower_count": 1,
              "lender_count": 0,
              "bonus_credit_eligibility": true,
              "tags": []
              },
              {
              "id": 883653,
              "name": "H.a.z Group",
              "description": {
              "languages": [
                            "en"
                            ]
              },
              "status": "fundraising",
              "funded_amount": 0,
              "basket_amount": 0,
              "image": {
              "id": 1879199,
              "template_id": 1
              },
              "activity": "Cosmetics Sales",
              "sector": "Retail",
              "use": "to increase her merchandise with a new collection of cosmetics.",
              "location": {
              "country_code": "LB",
              "country": "Lebanon",
              "town": "Tayouneh",
              "geo": {
              "level": "town",
              "pairs": "33.833333 35.833333",
              "type": "point"
              }
              },
              "partner_id": 77,
              "posted_date": "2015-05-13T13:50:02Z",
              "planned_expiration_date": "2015-06-12T13:50:02Z",
              "loan_amount": 1200,
              "borrower_count": 3,
              "lender_count": 0,
              "bonus_credit_eligibility": true,
              "tags": []
              },
              {
              "id": 883645,
              "name": "Jeanilyn",
              "description": {
              "languages": [
                            "en"
                            ]
              },
              "status": "fundraising",
              "funded_amount": 0,
              "basket_amount": 0,
              "image": {
              "id": 1879185,
              "template_id": 1
              },
              "activity": "General Store",
              "sector": "Retail",
              "use": "to buy items to sell like canned goods, personal care products, milk, coffee, drinks, noodles, spices, rice, sugar and other groceries.",
              "location": {
              "country_code": "PH",
              "country": "Philippines",
              "town": "Numancia, Aklan",
              "geo": {
              "level": "town",
              "pairs": "13 122",
              "type": "point"
              }
              },
              "partner_id": 145,
              "posted_date": "2015-05-13T13:40:04Z",
              "planned_expiration_date": "2015-06-12T13:40:03Z",
              "loan_amount": 225,
              "borrower_count": 1,
              "lender_count": 0,
              "bonus_credit_eligibility": true,
              "tags": []
              },
              {
              "id": 883647,
              "name": "Mryna",
              "description": {
              "languages": [
                            "en"
                            ]
              },
              "status": "fundraising",
              "funded_amount": 0,
              "basket_amount": 0,
              "image": {
              "id": 1879190,
              "template_id": 1
              },
              "activity": "Fruits & Vegetables",
              "sector": "Food",
              "use": "to buy more vegetable to sell in her food stall.",
              "location": {
              "country_code": "PH",
              "country": "Philippines",
              "town": "Baybay City, Leyte",
              "geo": {
              "level": "town",
              "pairs": "13 122",
              "type": "point"
              }
              },
              "partner_id": 145,
              "posted_date": "2015-05-13T13:40:04Z",
              "planned_expiration_date": "2015-06-12T13:40:04Z",
              "loan_amount": 225,
              "borrower_count": 1,
              "lender_count": 0,
              "bonus_credit_eligibility": true,
              "tags": []
              },
              {
              "id": 883648,
              "name": "Robie",
              "description": {
              "languages": [
                            "en"
                            ]
              },
              "status": "fundraising",
              "funded_amount": 0,
              "basket_amount": 0,
              "image": {
              "id": 1879191,
              "template_id": 1
              },
              "activity": "Services",
              "sector": "Services",
              "use": "to pay for the rice grains and the laborers' salaries for her rice mill.",
              "location": {
              "country_code": "PH",
              "country": "Philippines",
              "town": "Numancia, Aklan",
              "geo": {
              "level": "town",
              "pairs": "13 122",
              "type": "point"
              }
              },
              "partner_id": 145,
              "posted_date": "2015-05-13T13:40:04Z",
              "planned_expiration_date": "2015-06-12T13:40:04Z",
              "loan_amount": 250,
              "borrower_count": 1,
              "lender_count": 0,
              "bonus_credit_eligibility": true,
              "tags": []
              },
              {
              "id": 883650,
              "name": "Teodora",
              "description": {
              "languages": [
                            "en"
                            ]
              },
              "status": "fundraising",
              "funded_amount": 0,
              "basket_amount": 0,
              "image": {
              "id": 1879196,
              "template_id": 1
              },
              "activity": "Cereals",
              "sector": "Food",
              "use": "to purchase more sacks of rice grains to sell.",
              "location": {
              "country_code": "PH",
              "country": "Philippines",
              "town": "Brookes Point, Palawan",
              "geo": {
              "level": "town",
              "pairs": "13 122",
              "type": "point"
              }
              },
              "partner_id": 145,
              "posted_date": "2015-05-13T13:40:04Z",
              "planned_expiration_date": "2015-06-12T13:40:04Z",
              "loan_amount": 425,
              "borrower_count": 1,
              "lender_count": 0,
              "bonus_credit_eligibility": true,
              "tags": []
              },
              {
              "id": 883652,
              "name": "Remedios",
              "description": {
              "languages": [
                            "en"
                            ]
              },
              "status": "fundraising",
              "funded_amount": 0,
              "basket_amount": 0,
              "image": {
              "id": 1879200,
              "template_id": 1
              },
              "activity": "Pigs",
              "sector": "Agriculture",
              "use": "to buy feeds and vitamins and other supllies to raise livestock.",
              "location": {
              "country_code": "PH",
              "country": "Philippines",
              "town": "Baybay City, Leyte",
              "geo": {
              "level": "town",
              "pairs": "13 122",
              "type": "point"
              }
              },
              "partner_id": 145,
              "posted_date": "2015-05-13T13:40:04Z",
              "planned_expiration_date": "2015-06-12T13:40:04Z",
              "loan_amount": 300,
              "borrower_count": 1,
              "lender_count": 0,
              "bonus_credit_eligibility": true,
              "tags": []
              },
              {
              "id": 883659,
              "name": "Dilnoza",
              "description": {
              "languages": [
                            "en"
                            ]
              },
              "status": "fundraising",
              "funded_amount": 0,
              "basket_amount": 0,
              "image": {
              "id": 1879213,
              "template_id": 1
              },
              "activity": "Fruits & Vegetables",
              "sector": "Food",
              "themes": [
                         "Start-Up"
                         ],
              "use": "to open a business in processing dried fruits",
              "location": {
              "country_code": "TJ",
              "country": "Tajikistan",
              "town": "Kanibadam",
              "geo": {
              "level": "town",
              "pairs": "40.283333 70.416667",
              "type": "point"
              }
              },
              "partner_id": 100,
              "posted_date": "2015-05-13T13:40:03Z",
              "planned_expiration_date": "2015-06-12T13:40:03Z",
              "loan_amount": 800,
              "borrower_count": 1,
              "lender_count": 0,
              "bonus_credit_eligibility": true,
              "tags": []
              },
              {
              "id": 884642,
              "name": "Firuza",
              "description": {
              "languages": [
                            "ru",
                            "en"
                            ]
              },
              "status": "fundraising",
              "funded_amount": 0,
              "basket_amount": 0,
              "image": {
              "id": 1880531,
              "template_id": 1
              },
              "activity": "Animal Sales",
              "sector": "Agriculture",
              "themes": [
                         "Start-Up"
                         ],
              "use": "to buy a few young calves and start a new business",
              "location": {
              "country_code": "TJ",
              "country": "Tajikistan",
              "town": "Konibodom",
              "geo": {
              "level": "town",
              "pairs": "39 71",
              "type": "point"
              }
              },
              "partner_id": 63,
              "posted_date": "2015-05-13T13:40:02Z",
              "planned_expiration_date": "2015-06-12T13:40:02Z",
              "loan_amount": 1600,
              "borrower_count": 1,
              "lender_count": 0,
              "bonus_credit_eligibility": true,
              "tags": []
              }
              ]
}